HLTControlFlowMgr                      INFO Start initialization
HLTControlFlowMgr                      INFO Will not use an EventSelector.
HLTControlFlowMgr                      INFO Concurrency level information:
HLTControlFlowMgr                      INFO  o Number of events slots: 1
HLTControlFlowMgr                      INFO  o TBB thread pool size:  'ThreadPoolSize':1
ApplicationMgr                         INFO Application Manager Initialized successfully
Bursts                                 INFO Number of counters : 1
 |    Counter                                      |     #     |    sum     | mean/eff^* | rms/err^*  |     min     |     max     |
 | "IN"                                            |         1 |
Events                                 INFO Number of counters : 3
 |    Counter                                      |     #     |    sum     | mean/eff^* | rms/err^*  |     min     |     max     |
 | "IN"                                            |     30000 |
 | "MB_IN"                                         |        55 |
 | "SLICED"                                        |     30000 |
HLTControlFlowMgr                      INFO Number of counters : 1
 |    Counter                                      |     #     |    sum     | mean/eff^* | rms/err^*  |     min     |     max     |
 | "Processed events"                              |         1 |
gather_selections                      INFO Number of counters : 2
 |    Counter                                      |     #     |    sum     | mean/eff^* | rms/err^*  |     min     |     max     |
 | "Hlt1TAEPassthroughPass"                        |      3735 |
 | "Hlt1TAEPassthroughRate"                        |      3735 |
gather_selections                      INFO 1D histograms in directory "gather_selections" : 2
 | ID                                            | Title                                         |      #     |     Mean   |    RMS     |  Skewness  |  Kurtosis  |
 | line_passes                                   | "line passes"                                 |       3735 |        0.5 | 0.0000     |-nan        |-nan        |
 | line_rates                                    | "line rates"                                  |       3735 |        0.5 | 0.0000     |-nan        |-nan        |
